{
  "data": {
    "curPage": 1,
    "datas": [
      {
        "link": "https://juejin.cn/post/7111289318282362910",
        "niceDate": "13小时前",
        "niceShareDate": "13小时前",
        "shareUser": "蓝天",
        "superChapterName": "广场Tab",
        "title": "Retrofit源码赏析"
      }
    ],
    "offset": 0,
    "over": false,
    "pageCount": 626,
    "size": 20,
    "total": 12505
  },
  "errorCode": 0,
  "errorMsg": ""
}